<?xml version='1.0' encoding='UTF-8' standalone='yes' ?>
<gpx version="1.1" creator="OsmAnd~ 3.9.10" xmlns="http://www.topografix.com/GPX/1/1" xmlns:osmand="https://osmand.net" xmlns:xsi="http://www.w3.org/2001/XMLSchema-instance" xsi:schemaLocation="http://www.topografix.com/GPX/1/1 http://www.topografix.com/GPX/1/1/gpx.xsd">
  <metadata>
    <name>Jour 3</name>
  </metadata>
  <trk>
    <name>Jour 3</name>
    <trkseg>
      <trkpt lat="42.8198562" lon="-0.1950395">
        <ele>1856.9</ele>
      </trkpt>
      <trkpt lat="42.8198581" lon="-0.1950368">
        <ele>1856.9</ele>
      </trkpt>
      <trkpt lat="42.8198345" lon="-0.1947579">
        <ele>1856.2</ele>
      </trkpt>
      <trkpt lat="42.8198384" lon="-0.1945701">
        <ele>1856</ele>
      </trkpt>
      <trkpt lat="42.8197912" lon="-0.1944575">
        <ele>1854.8</ele>
      </trkpt>
      <trkpt lat="42.8197106" lon="-0.1943824">
        <ele>1853</ele>
      </trkpt>
      <trkpt lat="42.819687" lon="-0.194326">
        <ele>1852.5</ele>
      </trkpt>
      <trkpt lat="42.8196515" lon="-0.1942563">
        <ele>1851.5</ele>
      </trkpt>
      <trkpt lat="42.8196122" lon="-0.1941946">
        <ele>1850.5</ele>
      </trkpt>
      <trkpt lat="42.8195669" lon="-0.1940739">
        <ele>1849.2</ele>
      </trkpt>
      <trkpt lat="42.8195689" lon="-0.1940095">
        <ele>1849</ele>
      </trkpt>
      <trkpt lat="42.8196004" lon="-0.1938862">
        <ele>1849.5</ele>
      </trkpt>
      <trkpt lat="42.8196063" lon="-0.1938379">
        <ele>1849.8</ele>
      </trkpt>
      <trkpt lat="42.8195728" lon="-0.1937655">
        <ele>1849</ele>
      </trkpt>
      <trkpt lat="42.8195217" lon="-0.1935965">
        <ele>1847.5</ele>
      </trkpt>
      <trkpt lat="42.8194961" lon="-0.1935536">
        <ele>1847</ele>
      </trkpt>
      <trkpt lat="42.8194745" lon="-0.1935267">
        <ele>1846.8</ele>
      </trkpt>
      <trkpt lat="42.8194528" lon="-0.1935133">
        <ele>1846.5</ele>
      </trkpt>
      <trkpt lat="42.8194076" lon="-0.1935321">
        <ele>1846</ele>
      </trkpt>
      <trkpt lat="42.8193879" lon="-0.1935536">
        <ele>1845.9</ele>
      </trkpt>
      <trkpt lat="42.8193859" lon="-0.1935536">
        <ele>1845.9</ele>
      </trkpt>
      <trkpt lat="42.8193623" lon="-0.193567">
        <ele>1845.8</ele>
      </trkpt>
      <trkpt lat="42.8193348" lon="-0.1935965">
        <ele>1845.7</ele>
      </trkpt>
      <trkpt lat="42.819321" lon="-0.1935884">
        <ele>1845.6</ele>
      </trkpt>
      <trkpt lat="42.8193131" lon="-0.1935777">
        <ele>1845.6</ele>
      </trkpt>
      <trkpt lat="42.8193131" lon="-0.1935402">
        <ele>1845.5</ele>
      </trkpt>
      <trkpt lat="42.8193309" lon="-0.1934597">
        <ele>1845.2</ele>
      </trkpt>
      <trkpt lat="42.819321" lon="-0.1933014">
        <ele>1844.8</ele>
      </trkpt>
      <trkpt lat="42.8192836" lon="-0.1932612">
        <ele>1844.2</ele>
      </trkpt>
      <trkpt lat="42.8192128" lon="-0.193288">
        <ele>1843.5</ele>
      </trkpt>
      <trkpt lat="42.8191617" lon="-0.1933041">
        <ele>1843.2</ele>
      </trkpt>
      <trkpt lat="42.8190908" lon="-0.1932263">
        <ele>1842.5</ele>
      </trkpt>
      <trkpt lat="42.8190987" lon="-0.1929876">
        <ele>1839.8</ele>
      </trkpt>
      <trkpt lat="42.8191951" lon="-0.1927301">
        <ele>1838</ele>
      </trkpt>
      <trkpt lat="42.8192089" lon="-0.1926872">
        <ele>1837.8</ele>
      </trkpt>
      <trkpt lat="42.8192128" lon="-0.1925746">
        <ele>1837.2</ele>
      </trkpt>
      <trkpt lat="42.8192384" lon="-0.1924834">
        <ele>1837</ele>
      </trkpt>
      <trkpt lat="42.8192384" lon="-0.1923653">
        <ele>1836.5</ele>
      </trkpt>
      <trkpt lat="42.8192069" lon="-0.1922554">
        <ele>1835.8</ele>
      </trkpt>
      <trkpt lat="42.819199" lon="-0.1920569">
        <ele>1834.5</ele>
      </trkpt>
      <trkpt lat="42.8191636" lon="-0.192014">
        <ele>1834</ele>
      </trkpt>
      <trkpt lat="42.8190869" lon="-0.1918799">
        <ele>1832.8</ele>
      </trkpt>
      <trkpt lat="42.8190889" lon="-0.1918262">
        <ele>1832.5</ele>
      </trkpt>
      <trkpt lat="42.8192325" lon="-0.1916412">
        <ele>1831.8</ele>
      </trkpt>
      <trkpt lat="42.8192954" lon="-0.1914293">
        <ele>1829.5</ele>
      </trkpt>
      <trkpt lat="42.8193328" lon="-0.1911744">
        <ele>1826.5</ele>
      </trkpt>
      <trkpt lat="42.8193171" lon="-0.1909465">
        <ele>1824</ele>
      </trkpt>
      <trkpt lat="42.8192777" lon="-0.1906058">
        <ele>1821</ele>
      </trkpt>
      <trkpt lat="42.8192364" lon="-0.1905683">
        <ele>1820.8</ele>
      </trkpt>
      <trkpt lat="42.8191912" lon="-0.190461">
        <ele>1820.2</ele>
      </trkpt>
      <trkpt lat="42.819144" lon="-0.1904154">
        <ele>1820.2</ele>
      </trkpt>
      <trkpt lat="42.8190594" lon="-0.1903591">
        <ele>1820</ele>
      </trkpt>
      <trkpt lat="42.8189846" lon="-0.190351">
        <ele>1820.5</ele>
      </trkpt>
      <trkpt lat="42.8188784" lon="-0.1902893">
        <ele>1821</ele>
      </trkpt>
      <trkpt lat="42.8187465" lon="-0.1902759">
        <ele>1821.8</ele>
      </trkpt>
      <trkpt lat="42.8187072" lon="-0.1902357">
        <ele>1821.2</ele>
      </trkpt>
      <trkpt lat="42.818656" lon="-0.1901793">
        <ele>1820.8</ele>
      </trkpt>
      <trkpt lat="42.8186265" lon="-0.190115">
        <ele>1820.2</ele>
      </trkpt>
      <trkpt lat="42.8185557" lon="-0.1900157">
        <ele>1819.8</ele>
      </trkpt>
      <trkpt lat="42.8184731" lon="-0.1899433">
        <ele>1820</ele>
      </trkpt>
      <trkpt lat="42.8184081" lon="-0.1897797">
        <ele>1821</ele>
      </trkpt>
      <trkpt lat="42.8183314" lon="-0.1896295">
        <ele>1822.8</ele>
      </trkpt>
      <trkpt lat="42.8183058" lon="-0.1895893">
        <ele>1823.1</ele>
      </trkpt>
      <trkpt lat="42.8183058" lon="-0.1895893">
        <ele>1823.1</ele>
      </trkpt>
      <trkpt lat="42.8182389" lon="-0.1894712">
        <ele>1824</ele>
      </trkpt>
      <trkpt lat="42.8182035" lon="-0.1893666">
        <ele>1823.2</ele>
      </trkpt>
      <trkpt lat="42.8181504" lon="-0.1893291">
        <ele>1823.5</ele>
      </trkpt>
      <trkpt lat="42.818054" lon="-0.1893291">
        <ele>1824.5</ele>
      </trkpt>
      <trkpt lat="42.8179969" lon="-0.189321">
        <ele>1824.8</ele>
      </trkpt>
      <trkpt lat="42.8179202" lon="-0.1892915">
        <ele>1824.8</ele>
      </trkpt>
      <trkpt lat="42.817873" lon="-0.1892352">
        <ele>1822</ele>
      </trkpt>
      <trkpt lat="42.8178199" lon="-0.1892433">
        <ele>1821.5</ele>
      </trkpt>
      <trkpt lat="42.8177845" lon="-0.1892486">
        <ele>1821</ele>
      </trkpt>
      <trkpt lat="42.8177156" lon="-0.1891601">
        <ele>1819.2</ele>
      </trkpt>
      <trkpt lat="42.8175916" lon="-0.1891547">
        <ele>1819.8</ele>
      </trkpt>
      <trkpt lat="42.8174087" lon="-0.1893345">
        <ele>1822.5</ele>
      </trkpt>
      <trkpt lat="42.8173437" lon="-0.1894283">
        <ele>1824.2</ele>
      </trkpt>
      <trkpt lat="42.8169758" lon="-0.1895303">
        <ele>1828.5</ele>
      </trkpt>
      <trkpt lat="42.8168676" lon="-0.1895785">
        <ele>1829</ele>
      </trkpt>
      <trkpt lat="42.8167791" lon="-0.1895893">
        <ele>1829.2</ele>
      </trkpt>
      <trkpt lat="42.8166984" lon="-0.1896429">
        <ele>1829.5</ele>
      </trkpt>
      <trkpt lat="42.8165528" lon="-0.1896831">
        <ele>1830</ele>
      </trkpt>
      <trkpt lat="42.8164525" lon="-0.1897717">
        <ele>1831.5</ele>
      </trkpt>
      <trkpt lat="42.8163974" lon="-0.189777">
        <ele>1832.8</ele>
      </trkpt>
      <trkpt lat="42.8161495" lon="-0.1898897">
        <ele>1837.2</ele>
      </trkpt>
      <trkpt lat="42.8158111" lon="-0.1899809">
        <ele>1842</ele>
      </trkpt>
      <trkpt lat="42.8156438" lon="-0.1900345">
        <ele>1843.5</ele>
      </trkpt>
      <trkpt lat="42.8155789" lon="-0.1900372">
        <ele>1844.2</ele>
      </trkpt>
      <trkpt lat="42.8154904" lon="-0.1900667">
        <ele>1844.8</ele>
      </trkpt>
      <trkpt lat="42.8153231" lon="-0.1900238">
        <ele>1850.5</ele>
      </trkpt>
      <trkpt lat="42.8152307" lon="-0.1899406">
        <ele>1856</ele>
      </trkpt>
      <trkpt lat="42.8150792" lon="-0.1898924">
        <ele>1861.2</ele>
      </trkpt>
      <trkpt lat="42.8147663" lon="-0.1898494">
        <ele>1864</ele>
      </trkpt>
      <trkpt lat="42.8146443" lon="-0.1898414">
        <ele>1863.8</ele>
      </trkpt>
      <trkpt lat="42.8144377" lon="-0.1897529">
        <ele>1868.2</ele>
      </trkpt>
      <trkpt lat="42.8142528" lon="-0.1897153">
        <ele>1871.5</ele>
      </trkpt>
      <trkpt lat="42.8141879" lon="-0.1896107">
        <ele>1874</ele>
      </trkpt>
      <trkpt lat="42.8138888" lon="-0.1894954">
        <ele>1880.8</ele>
      </trkpt>
      <trkpt lat="42.8137766" lon="-0.1894712">
        <ele>1884.5</ele>
      </trkpt>
      <trkpt lat="42.8137038" lon="-0.18949">
        <ele>1886.2</ele>
      </trkpt>
      <trkpt lat="42.8135838" lon="-0.1894686">
        <ele>1888.5</ele>
      </trkpt>
      <trkpt lat="42.8134638" lon="-0.189372">
        <ele>1890.2</ele>
      </trkpt>
      <trkpt lat="42.8132592" lon="-0.1894417">
        <ele>1892.2</ele>
      </trkpt>
      <trkpt lat="42.8130348" lon="-0.1893398">
        <ele>1899.5</ele>
      </trkpt>
      <trkpt lat="42.8129227" lon="-0.189321">
        <ele>1903</ele>
      </trkpt>
      <trkpt lat="42.812781" lon="-0.1892862">
        <ele>1906.2</ele>
      </trkpt>
      <trkpt lat="42.8126866" lon="-0.1892218">
        <ele>1906.8</ele>
      </trkpt>
      <trkpt lat="42.8126197" lon="-0.1892057">
        <ele>1907.5</ele>
      </trkpt>
      <trkpt lat="42.8125508" lon="-0.1892084">
        <ele>1908.5</ele>
      </trkpt>
      <trkpt lat="42.8124269" lon="-0.1892191">
        <ele>1910.2</ele>
      </trkpt>
      <trkpt lat="42.8123383" lon="-0.1891977">
        <ele>1912.5</ele>
      </trkpt>
      <trkpt lat="42.8122301" lon="-0.1890394">
        <ele>1917</ele>
      </trkpt>
      <trkpt lat="42.812175" lon="-0.1890099">
        <ele>1917.8</ele>
      </trkpt>
      <trkpt lat="42.8120373" lon="-0.1889992">
        <ele>1919.8</ele>
      </trkpt>
      <trkpt lat="42.8119192" lon="-0.1889938">
        <ele>1921</ele>
      </trkpt>
      <trkpt lat="42.8118346" lon="-0.1890126">
        <ele>1922.2</ele>
      </trkpt>
      <trkpt lat="42.8117815" lon="-0.1890555">
        <ele>1923.2</ele>
      </trkpt>
      <trkpt lat="42.8117047" lon="-0.1890609">
        <ele>1924.5</ele>
      </trkpt>
      <trkpt lat="42.8116398" lon="-0.1891038">
        <ele>1925.5</ele>
      </trkpt>
      <trkpt lat="42.8115375" lon="-0.1891306">
        <ele>1926.8</ele>
      </trkpt>
      <trkpt lat="42.8115237" lon="-0.1891735">
        <ele>1926.5</ele>
      </trkpt>
      <trkpt lat="42.8114922" lon="-0.1892003">
        <ele>1926.6</ele>
      </trkpt>
      <trkpt lat="42.8113604" lon="-0.1892433">
        <ele>1927</ele>
      </trkpt>
      <trkpt lat="42.8113289" lon="-0.1891977">
        <ele>1928.5</ele>
      </trkpt>
      <trkpt lat="42.8113191" lon="-0.189144">
        <ele>1930.2</ele>
      </trkpt>
      <trkpt lat="42.8112561" lon="-0.1890984">
        <ele>1933</ele>
      </trkpt>
      <trkpt lat="42.8112227" lon="-0.1890475">
        <ele>1935</ele>
      </trkpt>
      <trkpt lat="42.8111381" lon="-0.1887739">
        <ele>1944</ele>
      </trkpt>
      <trkpt lat="42.8111282" lon="-0.1886505">
        <ele>1945.5</ele>
      </trkpt>
      <trkpt lat="42.8111774" lon="-0.1884842">
        <ele>1943.8</ele>
      </trkpt>
      <trkpt lat="42.8112384" lon="-0.1883823">
        <ele>1944.2</ele>
      </trkpt>
      <trkpt lat="42.8112896" lon="-0.1882643">
        <ele>1947.2</ele>
      </trkpt>
      <trkpt lat="42.8112305" lon="-0.1882643">
        <ele>1950</ele>
      </trkpt>
      <trkpt lat="42.8111577" lon="-0.1883259">
        <ele>1950.1</ele>
      </trkpt>
      <trkpt lat="42.8110534" lon="-0.1884601">
        <ele>1950.2</ele>
      </trkpt>
      <trkpt lat="42.8109629" lon="-0.1885566">
        <ele>1954</ele>
      </trkpt>
      <trkpt lat="42.8108173" lon="-0.1884601">
        <ele>1958</ele>
      </trkpt>
      <trkpt lat="42.8107465" lon="-0.1884064">
        <ele>1959</ele>
      </trkpt>
      <trkpt lat="42.810717" lon="-0.1884091">
        <ele>1959.4</ele>
      </trkpt>
      <trkpt lat="42.8107071" lon="-0.1884386">
        <ele>1959.8</ele>
      </trkpt>
      <trkpt lat="42.8107012" lon="-0.1884976">
        <ele>1959.2</ele>
      </trkpt>
      <trkpt lat="42.8106934" lon="-0.1885244">
        <ele>1958.8</ele>
      </trkpt>
      <trkpt lat="42.8106166" lon="-0.1885191">
        <ele>1959.5</ele>
      </trkpt>
      <trkpt lat="42.8105615" lon="-0.1884922">
        <ele>1960</ele>
      </trkpt>
      <trkpt lat="42.8105281" lon="-0.1884761">
        <ele>1960.2</ele>
      </trkpt>
      <trkpt lat="42.8105123" lon="-0.1884601">
        <ele>1960.3</ele>
      </trkpt>
      <trkpt lat="42.8104651" lon="-0.1884574">
        <ele>1960.5</ele>
      </trkpt>
      <trkpt lat="42.8104336" lon="-0.1884305">
        <ele>1960.8</ele>
      </trkpt>
      <trkpt lat="42.8103903" lon="-0.1883984">
        <ele>1961.1</ele>
      </trkpt>
      <trkpt lat="42.8103707" lon="-0.1884091">
        <ele>1961.3</ele>
      </trkpt>
      <trkpt lat="42.810347" lon="-0.1884279">
        <ele>1961.5</ele>
      </trkpt>
      <trkpt lat="42.81029" lon="-0.1884305">
        <ele>1962</ele>
      </trkpt>
      <trkpt lat="42.8102428" lon="-0.1884386">
        <ele>1962.5</ele>
      </trkpt>
      <trkpt lat="42.8101877" lon="-0.1884359">
        <ele>1963</ele>
      </trkpt>
      <trkpt lat="42.8101306" lon="-0.1884064">
        <ele>1963.8</ele>
      </trkpt>
      <trkpt lat="42.8100834" lon="-0.1883742">
        <ele>1964.2</ele>
      </trkpt>
      <trkpt lat="42.8100263" lon="-0.188334">
        <ele>1965</ele>
      </trkpt>
      <trkpt lat="42.8099673" lon="-0.1882964">
        <ele>1965.8</ele>
      </trkpt>
      <trkpt lat="42.8098807" lon="-0.1882347">
        <ele>1967</ele>
      </trkpt>
      <trkpt lat="42.8098256" lon="-0.1881811">
        <ele>1967.3</ele>
      </trkpt>
      <trkpt lat="42.8097823" lon="-0.1881355">
        <ele>1967.5</ele>
      </trkpt>
      <trkpt lat="42.8097528" lon="-0.1880953">
        <ele>1967.8</ele>
      </trkpt>
      <trkpt lat="42.8097272" lon="-0.188055">
        <ele>1968</ele>
      </trkpt>
      <trkpt lat="42.8096485" lon="-0.1880255">
        <ele>1968.5</ele>
      </trkpt>
      <trkpt lat="42.8096092" lon="-0.1879692">
        <ele>1969.5</ele>
      </trkpt>
      <trkpt lat="42.8095718" lon="-0.1879236">
        <ele>1970.8</ele>
      </trkpt>
      <trkpt lat="42.8095423" lon="-0.1878887">
        <ele>1972</ele>
      </trkpt>
      <trkpt lat="42.8095088" lon="-0.1878673">
        <ele>1973</ele>
      </trkpt>
      <trkpt lat="42.8093927" lon="-0.1878566">
        <ele>1976</ele>
      </trkpt>
      <trkpt lat="42.809316" lon="-0.1878431">
        <ele>1978</ele>
      </trkpt>
      <trkpt lat="42.8091704" lon="-0.1878834">
        <ele>1979.5</ele>
      </trkpt>
      <trkpt lat="42.8090602" lon="-0.1877546">
        <ele>1981.8</ele>
      </trkpt>
      <trkpt lat="42.8087729" lon="-0.1876527">
        <ele>1987.2</ele>
      </trkpt>
      <trkpt lat="42.8086942" lon="-0.1875749">
        <ele>1988.5</ele>
      </trkpt>
      <trkpt lat="42.8085387" lon="-0.1875561">
        <ele>1989.8</ele>
      </trkpt>
      <trkpt lat="42.8084777" lon="-0.1875588">
        <ele>1990.2</ele>
      </trkpt>
      <trkpt lat="42.8084266" lon="-0.187473">
        <ele>1992</ele>
      </trkpt>
      <trkpt lat="42.8083597" lon="-0.1872075">
        <ele>1995.2</ele>
      </trkpt>
      <trkpt lat="42.8082239" lon="-0.1870921">
        <ele>1997.5</ele>
      </trkpt>
      <trkpt lat="42.8080783" lon="-0.1870197">
        <ele>1998.2</ele>
      </trkpt>
      <trkpt lat="42.8079464" lon="-0.1867998">
        <ele>2000.5</ele>
      </trkpt>
      <trkpt lat="42.8079071" lon="-0.1866174">
        <ele>2000.8</ele>
      </trkpt>
      <trkpt lat="42.8078815" lon="-0.1865208">
        <ele>2000.9</ele>
      </trkpt>
      <trkpt lat="42.80785" lon="-0.1864296">
        <ele>2001</ele>
      </trkpt>
      <trkpt lat="42.8078165" lon="-0.1863894">
        <ele>2001.2</ele>
      </trkpt>
      <trkpt lat="42.8077496" lon="-0.1862553">
        <ele>2002.2</ele>
      </trkpt>
      <trkpt lat="42.8076119" lon="-0.1861453">
        <ele>2003.8</ele>
      </trkpt>
      <trkpt lat="42.807484" lon="-0.1860058">
        <ele>2004.8</ele>
      </trkpt>
      <trkpt lat="42.8073502" lon="-0.1859039">
        <ele>2006</ele>
      </trkpt>
      <trkpt lat="42.8072439" lon="-0.1857591">
        <ele>2007.2</ele>
      </trkpt>
      <trkpt lat="42.8071357" lon="-0.1855364">
        <ele>2012</ele>
      </trkpt>
      <trkpt lat="42.8070255" lon="-0.1853272">
        <ele>2016.2</ele>
      </trkpt>
      <trkpt lat="42.8070235" lon="-0.1850483">
        <ele>2018.5</ele>
      </trkpt>
      <trkpt lat="42.8069665" lon="-0.1847881">
        <ele>2022.8</ele>
      </trkpt>
      <trkpt lat="42.8069035" lon="-0.1844019">
        <ele>2026</ele>
      </trkpt>
      <trkpt lat="42.8068622" lon="-0.1842999">
        <ele>2026.8</ele>
      </trkpt>
      <trkpt lat="42.8068189" lon="-0.1842651">
        <ele>2026.9</ele>
      </trkpt>
      <trkpt lat="42.8067618" lon="-0.184198">
        <ele>2027</ele>
      </trkpt>
      <trkpt lat="42.806748" lon="-0.1841176">
        <ele>2027.8</ele>
      </trkpt>
      <trkpt lat="42.8067618" lon="-0.1840425">
        <ele>2028.8</ele>
      </trkpt>
      <trkpt lat="42.8067933" lon="-0.1839861">
        <ele>2029.8</ele>
      </trkpt>
      <trkpt lat="42.8068661" lon="-0.1839781">
        <ele>2031.2</ele>
      </trkpt>
      <trkpt lat="42.8068917" lon="-0.1839486">
        <ele>2032.5</ele>
      </trkpt>
      <trkpt lat="42.8069232" lon="-0.1836106">
        <ele>2038</ele>
      </trkpt>
      <trkpt lat="42.8070137" lon="-0.1830688">
        <ele>2046.2</ele>
      </trkpt>
      <trkpt lat="42.8071377" lon="-0.1832888">
        <ele>2049.8</ele>
      </trkpt>
      <trkpt lat="42.8072164" lon="-0.1833585">
        <ele>2053</ele>
      </trkpt>
      <trkpt lat="42.8074328" lon="-0.1833826">
        <ele>2060.5</ele>
      </trkpt>
      <trkpt lat="42.8074919" lon="-0.1835033">
        <ele>2058.2</ele>
      </trkpt>
      <trkpt lat="42.8075489" lon="-0.1835194">
        <ele>2057.2</ele>
      </trkpt>
      <trkpt lat="42.8075942" lon="-0.1834604">
        <ele>2059.8</ele>
      </trkpt>
      <trkpt lat="42.8076099" lon="-0.1835355">
        <ele>2056.2</ele>
      </trkpt>
      <trkpt lat="42.8076729" lon="-0.183557">
        <ele>2055.8</ele>
      </trkpt>
      <trkpt lat="42.8077457" lon="-0.183506">
        <ele>2059.5</ele>
      </trkpt>
      <trkpt lat="42.8078087" lon="-0.1834604">
        <ele>2062.5</ele>
      </trkpt>
      <trkpt lat="42.8078402" lon="-0.1834068">
        <ele>2064.8</ele>
      </trkpt>
      <trkpt lat="42.8078106" lon="-0.1831815">
        <ele>2069.8</ele>
      </trkpt>
      <trkpt lat="42.8076788" lon="-0.1829588">
        <ele>2074</ele>
      </trkpt>
      <trkpt lat="42.8076099" lon="-0.1828891">
        <ele>2074.2</ele>
      </trkpt>
      <trkpt lat="42.8075568" lon="-0.182806">
        <ele>2073.8</ele>
      </trkpt>
      <trkpt lat="42.8075627" lon="-0.1827255">
        <ele>2075.2</ele>
      </trkpt>
      <trkpt lat="42.8075056" lon="-0.1825243">
        <ele>2074.8</ele>
      </trkpt>
      <trkpt lat="42.8074997" lon="-0.182417">
        <ele>2075.2</ele>
      </trkpt>
      <trkpt lat="42.8075076" lon="-0.1823151">
        <ele>2077.2</ele>
      </trkpt>
      <trkpt lat="42.8075391" lon="-0.1823768">
        <ele>2077.8</ele>
      </trkpt>
      <trkpt lat="42.8075568" lon="-0.1823527">
        <ele>2079</ele>
      </trkpt>
      <trkpt lat="42.8075725" lon="-0.1823822">
        <ele>2079.5</ele>
      </trkpt>
      <trkpt lat="42.8075942" lon="-0.1823366">
        <ele>2081.2</ele>
      </trkpt>
      <trkpt lat="42.8076316" lon="-0.1823929">
        <ele>2082.5</ele>
      </trkpt>
      <trkpt lat="42.8076473" lon="-0.1823419">
        <ele>2084.2</ele>
      </trkpt>
      <trkpt lat="42.8076808" lon="-0.18246">
        <ele>2086.2</ele>
      </trkpt>
      <trkpt lat="42.8077929" lon="-0.1825619">
        <ele>2089</ele>
      </trkpt>
      <trkpt lat="42.8078815" lon="-0.182468">
        <ele>2095.8</ele>
      </trkpt>
      <trkpt lat="42.8079405" lon="-0.1821327">
        <ele>2105.5</ele>
      </trkpt>
      <trkpt lat="42.8080251" lon="-0.1820576">
        <ele>2110</ele>
      </trkpt>
      <trkpt lat="42.8080369" lon="-0.1819825">
        <ele>2111.2</ele>
      </trkpt>
      <trkpt lat="42.8080192" lon="-0.1819155">
        <ele>2111.8</ele>
      </trkpt>
      <trkpt lat="42.8079386" lon="-0.1818645">
        <ele>2112</ele>
      </trkpt>
      <trkpt lat="42.8078775" lon="-0.1818055">
        <ele>2113.8</ele>
      </trkpt>
      <trkpt lat="42.8078185" lon="-0.1815775">
        <ele>2118.2</ele>
      </trkpt>
      <trkpt lat="42.8076749" lon="-0.1812986">
        <ele>2121.8</ele>
      </trkpt>
      <trkpt lat="42.8075666" lon="-0.181253">
        <ele>2122.8</ele>
      </trkpt>
      <trkpt lat="42.8074997" lon="-0.1810786">
        <ele>2125.2</ele>
      </trkpt>
      <trkpt lat="42.8073167" lon="-0.1810545">
        <ele>2126.5</ele>
      </trkpt>
      <trkpt lat="42.8071869" lon="-0.1810008">
        <ele>2126.2</ele>
      </trkpt>
      <trkpt lat="42.807118" lon="-0.1809204">
        <ele>2127</ele>
      </trkpt>
      <trkpt lat="42.806933" lon="-0.1808453">
        <ele>2126.2</ele>
      </trkpt>
      <trkpt lat="42.8067736" lon="-0.1807675">
        <ele>2127</ele>
      </trkpt>
      <trkpt lat="42.8064371" lon="-0.1804268">
        <ele>2134</ele>
      </trkpt>
      <trkpt lat="42.8063387" lon="-0.1803356">
        <ele>2135.8</ele>
      </trkpt>
      <trkpt lat="42.806262" lon="-0.180231">
        <ele>2138</ele>
      </trkpt>
      <trkpt lat="42.8063053" lon="-0.1799762">
        <ele>2144.2</ele>
      </trkpt>
      <trkpt lat="42.8062777" lon="-0.1798207">
        <ele>2147.8</ele>
      </trkpt>
      <trkpt lat="42.8061675" lon="-0.1797161">
        <ele>2150</ele>
      </trkpt>
      <trkpt lat="42.8057504" lon="-0.1796892">
        <ele>2158.2</ele>
      </trkpt>
      <trkpt lat="42.8055929" lon="-0.1798636">
        <ele>2156.5</ele>
      </trkpt>
      <trkpt lat="42.8055103" lon="-0.1798582">
        <ele>2156.2</ele>
      </trkpt>
      <trkpt lat="42.8052545" lon="-0.1796463">
        <ele>2156.5</ele>
      </trkpt>
      <trkpt lat="42.8051757" lon="-0.1796249">
        <ele>2155.5</ele>
      </trkpt>
      <trkpt lat="42.8051521" lon="-0.1796114">
        <ele>2155.8</ele>
      </trkpt>
      <trkpt lat="42.8050833" lon="-0.1795739">
        <ele>2157.2</ele>
      </trkpt>
      <trkpt lat="42.8050203" lon="-0.1794532">
        <ele>2162</ele>
      </trkpt>
      <trkpt lat="42.8048943" lon="-0.1794049">
        <ele>2163.8</ele>
      </trkpt>
      <trkpt lat="42.8048078" lon="-0.1793405">
        <ele>2167.8</ele>
      </trkpt>
      <trkpt lat="42.8045775" lon="-0.1792628">
        <ele>2172</ele>
      </trkpt>
      <trkpt lat="42.8045323" lon="-0.1792037">
        <ele>2172.2</ele>
      </trkpt>
      <trkpt lat="42.8045008" lon="-0.1791126">
        <ele>2173.2</ele>
      </trkpt>
      <trkpt lat="42.8044398" lon="-0.1790401">
        <ele>2174</ele>
      </trkpt>
      <trkpt lat="42.804426" lon="-0.1789409">
        <ele>2174.5</ele>
      </trkpt>
      <trkpt lat="42.8044162" lon="-0.1787934">
        <ele>2175</ele>
      </trkpt>
      <trkpt lat="42.8044378" lon="-0.1787639">
        <ele>2175.5</ele>
      </trkpt>
      <trkpt lat="42.8045342" lon="-0.178847">
        <ele>2176.8</ele>
      </trkpt>
      <trkpt lat="42.8046129" lon="-0.1788658">
        <ele>2179.2</ele>
      </trkpt>
      <trkpt lat="42.8046129" lon="-0.178788">
        <ele>2181</ele>
      </trkpt>
      <trkpt lat="42.8044811" lon="-0.1785064">
        <ele>2182.2</ele>
      </trkpt>
      <trkpt lat="42.8045145" lon="-0.1784822">
        <ele>2184.2</ele>
      </trkpt>
      <trkpt lat="42.8046208" lon="-0.1784983">
        <ele>2188</ele>
      </trkpt>
      <trkpt lat="42.8047409" lon="-0.1783562">
        <ele>2194.8</ele>
      </trkpt>
      <trkpt lat="42.804796" lon="-0.1782328">
        <ele>2200.5</ele>
      </trkpt>
      <trkpt lat="42.8048078" lon="-0.1780477">
        <ele>2207.2</ele>
      </trkpt>
      <trkpt lat="42.8047723" lon="-0.1778787">
        <ele>2211.8</ele>
      </trkpt>
      <trkpt lat="42.8047448" lon="-0.1778063">
        <ele>2213.2</ele>
      </trkpt>
      <trkpt lat="42.8046779" lon="-0.177809">
        <ele>2213</ele>
      </trkpt>
      <trkpt lat="42.8045283" lon="-0.1777875">
        <ele>2212</ele>
      </trkpt>
      <trkpt lat="42.8044319" lon="-0.1776159">
        <ele>2218.8</ele>
      </trkpt>
      <trkpt lat="42.8042961" lon="-0.1772699">
        <ele>2227.5</ele>
      </trkpt>
      <trkpt lat="42.8042076" lon="-0.1771304">
        <ele>2229.8</ele>
      </trkpt>
      <trkpt lat="42.8041485" lon="-0.1770794">
        <ele>2230.5</ele>
      </trkpt>
      <trkpt lat="42.8040895" lon="-0.177058">
        <ele>2230.8</ele>
      </trkpt>
      <trkpt lat="42.8039419" lon="-0.1770687">
        <ele>2230.8</ele>
      </trkpt>
      <trkpt lat="42.8038848" lon="-0.1770741">
        <ele>2233</ele>
      </trkpt>
      <trkpt lat="42.8037628" lon="-0.1770955">
        <ele>2234.5</ele>
      </trkpt>
      <trkpt lat="42.8036506" lon="-0.1770741">
        <ele>2237</ele>
      </trkpt>
      <trkpt lat="42.8035149" lon="-0.1770821">
        <ele>2238</ele>
      </trkpt>
      <trkpt lat="42.8034243" lon="-0.1771116">
        <ele>2236.5</ele>
      </trkpt>
      <trkpt lat="42.8033338" lon="-0.1770446">
        <ele>2240</ele>
      </trkpt>
      <trkpt lat="42.8032059" lon="-0.1770017">
        <ele>2241.8</ele>
      </trkpt>
      <trkpt lat="42.8031055" lon="-0.1769105">
        <ele>2244</ele>
      </trkpt>
      <trkpt lat="42.8029914" lon="-0.1767415">
        <ele>2245</ele>
      </trkpt>
      <trkpt lat="42.8029068" lon="-0.1766396">
        <ele>2246.2</ele>
      </trkpt>
      <trkpt lat="42.8028162" lon="-0.1765323">
        <ele>2247</ele>
      </trkpt>
      <trkpt lat="42.8026234" lon="-0.1763338">
        <ele>2246.8</ele>
      </trkpt>
      <trkpt lat="42.8025683" lon="-0.1762587">
        <ele>2247.2</ele>
      </trkpt>
      <trkpt lat="42.8024187" lon="-0.1761621">
        <ele>2250.2</ele>
      </trkpt>
      <trkpt lat="42.8023459" lon="-0.1761192">
        <ele>2251.8</ele>
      </trkpt>
      <trkpt lat="42.8022554" lon="-0.1760066">
        <ele>2252.5</ele>
      </trkpt>
      <trkpt lat="42.802218" lon="-0.1759422">
        <ele>2252.1</ele>
      </trkpt>
      <trkpt lat="42.8021767" lon="-0.1758483">
        <ele>2251.5</ele>
      </trkpt>
      <trkpt lat="42.802092" lon="-0.1758054">
        <ele>2252</ele>
      </trkpt>
      <trkpt lat="42.8019228" lon="-0.1758081">
        <ele>2253.5</ele>
      </trkpt>
      <trkpt lat="42.8018224" lon="-0.1758161">
        <ele>2254.2</ele>
      </trkpt>
      <trkpt lat="42.8017516" lon="-0.1757973">
        <ele>2254.6</ele>
      </trkpt>
      <trkpt lat="42.8016197" lon="-0.1758">
        <ele>2255.2</ele>
      </trkpt>
      <trkpt lat="42.8015607" lon="-0.1758242">
        <ele>2256</ele>
      </trkpt>
      <trkpt lat="42.8015076" lon="-0.1758242">
        <ele>2255.8</ele>
      </trkpt>
      <trkpt lat="42.8014013" lon="-0.1759234">
        <ele>2257.5</ele>
      </trkpt>
      <trkpt lat="42.8013186" lon="-0.1759315">
        <ele>2256.5</ele>
      </trkpt>
      <trkpt lat="42.8012616" lon="-0.1759771">
        <ele>2257</ele>
      </trkpt>
      <trkpt lat="42.8012202" lon="-0.1760173">
        <ele>2256.8</ele>
      </trkpt>
      <trkpt lat="42.8012006" lon="-0.1760843">
        <ele>2257.8</ele>
      </trkpt>
      <trkpt lat="42.8011671" lon="-0.1761112">
        <ele>2257</ele>
      </trkpt>
      <trkpt lat="42.8011238" lon="-0.1761836">
        <ele>2256.3</ele>
      </trkpt>
      <trkpt lat="42.8010707" lon="-0.1762211">
        <ele>2255.8</ele>
      </trkpt>
      <trkpt lat="42.8010313" lon="-0.1762185">
        <ele>2254.2</ele>
      </trkpt>
      <trkpt lat="42.8010038" lon="-0.1762399">
        <ele>2253.8</ele>
      </trkpt>
      <trkpt lat="42.8009585" lon="-0.1763043">
        <ele>2254</ele>
      </trkpt>
      <trkpt lat="42.800866" lon="-0.1764169">
        <ele>2254.5</ele>
      </trkpt>
      <trkpt lat="42.800744" lon="-0.1765564">
        <ele>2256.2</ele>
      </trkpt>
      <trkpt lat="42.8006377" lon="-0.1765698">
        <ele>2253.8</ele>
      </trkpt>
      <trkpt lat="42.8005905" lon="-0.1765966">
        <ele>2252.8</ele>
      </trkpt>
      <trkpt lat="42.8005492" lon="-0.1766342">
        <ele>2252.2</ele>
      </trkpt>
      <trkpt lat="42.800496" lon="-0.1766503">
        <ele>2251.5</ele>
      </trkpt>
      <trkpt lat="42.8004448" lon="-0.1766798">
        <ele>2251.2</ele>
      </trkpt>
      <trkpt lat="42.800435" lon="-0.17672">
        <ele>2252</ele>
      </trkpt>
      <trkpt lat="42.8004016" lon="-0.1767388">
        <ele>2252.2</ele>
      </trkpt>
      <trkpt lat="42.8003405" lon="-0.1767522">
        <ele>2252</ele>
      </trkpt>
      <trkpt lat="42.8003287" lon="-0.1767737">
        <ele>2252.2</ele>
      </trkpt>
      <trkpt lat="42.8001378" lon="-0.176881">
        <ele>2253.8</ele>
      </trkpt>
      <trkpt lat="42.8000217" lon="-0.1768461">
        <ele>2257.5</ele>
      </trkpt>
      <trkpt lat="42.7999883" lon="-0.176838">
        <ele>2258.8</ele>
      </trkpt>
      <trkpt lat="42.7999588" lon="-0.1768139">
        <ele>2259.8</ele>
      </trkpt>
      <trkpt lat="42.7999214" lon="-0.1767898">
        <ele>2260.8</ele>
      </trkpt>
      <trkpt lat="42.799884" lon="-0.1767549">
        <ele>2261</ele>
      </trkpt>
      <trkpt lat="42.7998249" lon="-0.1766664">
        <ele>2259.5</ele>
      </trkpt>
      <trkpt lat="42.7997108" lon="-0.1766878">
        <ele>2260.8</ele>
      </trkpt>
      <trkpt lat="42.7996321" lon="-0.1766476">
        <ele>2260.2</ele>
      </trkpt>
      <trkpt lat="42.7995514" lon="-0.1765993">
        <ele>2260</ele>
      </trkpt>
      <trkpt lat="42.7994667" lon="-0.1765269">
        <ele>2260.4</ele>
      </trkpt>
      <trkpt lat="42.799453" lon="-0.1764813">
        <ele>2260.5</ele>
      </trkpt>
      <trkpt lat="42.7994057" lon="-0.1764143">
        <ele>2260.8</ele>
      </trkpt>
      <trkpt lat="42.7993388" lon="-0.1762801">
        <ele>2263</ele>
      </trkpt>
      <trkpt lat="42.7993093" lon="-0.176256">
        <ele>2264</ele>
      </trkpt>
      <trkpt lat="42.7992286" lon="-0.1762211">
        <ele>2266.2</ele>
      </trkpt>
      <trkpt lat="42.7992011" lon="-0.1761782">
        <ele>2266.8</ele>
      </trkpt>
      <trkpt lat="42.7991696" lon="-0.1761219">
        <ele>2267</ele>
      </trkpt>
      <trkpt lat="42.7991676" lon="-0.1760387">
        <ele>2266.5</ele>
      </trkpt>
      <trkpt lat="42.7991027" lon="-0.175918">
        <ele>2265.2</ele>
      </trkpt>
      <trkpt lat="42.7990692" lon="-0.1758724">
        <ele>2264.8</ele>
      </trkpt>
      <trkpt lat="42.7989826" lon="-0.1758322">
        <ele>2264.2</ele>
      </trkpt>
      <trkpt lat="42.7988389" lon="-0.1757973">
        <ele>2263.8</ele>
      </trkpt>
      <trkpt lat="42.7987897" lon="-0.1758215">
        <ele>2263.6</ele>
      </trkpt>
      <trkpt lat="42.7987012" lon="-0.175741">
        <ele>2263.2</ele>
      </trkpt>
      <trkpt lat="42.7986146" lon="-0.1756847">
        <ele>2263</ele>
      </trkpt>
      <trkpt lat="42.7984945" lon="-0.1756901">
        <ele>2263.2</ele>
      </trkpt>
      <trkpt lat="42.7984571" lon="-0.1756901">
        <ele>2263.2</ele>
      </trkpt>
      <trkpt lat="42.7984355" lon="-0.1756498">
        <ele>2263.3</ele>
      </trkpt>
      <trkpt lat="42.7982859" lon="-0.1755533">
        <ele>2263.5</ele>
      </trkpt>
      <trkpt lat="42.7982111" lon="-0.1755211">
        <ele>2264.5</ele>
      </trkpt>
      <trkpt lat="42.798158" lon="-0.1754782">
        <ele>2266.5</ele>
      </trkpt>
      <trkpt lat="42.7981304" lon="-0.1754272">
        <ele>2268</ele>
      </trkpt>
      <trkpt lat="42.7980497" lon="-0.175328">
        <ele>2272.2</ele>
      </trkpt>
      <trkpt lat="42.7980005" lon="-0.1753253">
        <ele>2274.8</ele>
      </trkpt>
      <trkpt lat="42.7979277" lon="-0.1753816">
        <ele>2278.5</ele>
      </trkpt>
      <trkpt lat="42.7979002" lon="-0.1753628">
        <ele>2279.2</ele>
      </trkpt>
      <trkpt lat="42.7978392" lon="-0.1753065">
        <ele>2280.2</ele>
      </trkpt>
      <trkpt lat="42.7978057" lon="-0.1752877">
        <ele>2280.5</ele>
      </trkpt>
      <trkpt lat="42.7977919" lon="-0.1752314">
        <ele>2280</ele>
      </trkpt>
      <trkpt lat="42.7977309" lon="-0.1752126">
        <ele>2280.5</ele>
      </trkpt>
      <trkpt lat="42.7976758" lon="-0.175218">
        <ele>2281</ele>
      </trkpt>
      <trkpt lat="42.7976384" lon="-0.1752448">
        <ele>2281.8</ele>
      </trkpt>
      <trkpt lat="42.7976187" lon="-0.1753038">
        <ele>2282.5</ele>
      </trkpt>
      <trkpt lat="42.7976286" lon="-0.1753736">
        <ele>2283</ele>
      </trkpt>
      <trkpt lat="42.797603" lon="-0.1754031">
        <ele>2283.2</ele>
      </trkpt>
      <trkpt lat="42.7975538" lon="-0.1754192">
        <ele>2283.3</ele>
      </trkpt>
      <trkpt lat="42.7975164" lon="-0.175446">
        <ele>2283.4</ele>
      </trkpt>
      <trkpt lat="42.7974947" lon="-0.1754862">
        <ele>2283.4</ele>
      </trkpt>
      <trkpt lat="42.7974633" lon="-0.1754916">
        <ele>2283.4</ele>
      </trkpt>
      <trkpt lat="42.7974141" lon="-0.1755077">
        <ele>2283.5</ele>
      </trkpt>
      <trkpt lat="42.7973708" lon="-0.1754889">
        <ele>2283.4</ele>
      </trkpt>
      <trkpt lat="42.7973038" lon="-0.1754701">
        <ele>2283.3</ele>
      </trkpt>
      <trkpt lat="42.7972605" lon="-0.1754057">
        <ele>2283.2</ele>
      </trkpt>
      <trkpt lat="42.7971897" lon="-0.1753387">
        <ele>2283.8</ele>
      </trkpt>
      <trkpt lat="42.7971562" lon="-0.1752582">
        <ele>2284.2</ele>
      </trkpt>
      <trkpt lat="42.796987" lon="-0.1751402">
        <ele>2285.2</ele>
      </trkpt>
      <trkpt lat="42.7968846" lon="-0.1750705">
        <ele>2286.5</ele>
      </trkpt>
      <trkpt lat="42.7968157" lon="-0.174998">
        <ele>2288.2</ele>
      </trkpt>
      <trkpt lat="42.7968217" lon="-0.1749417">
        <ele>2289.1</ele>
      </trkpt>
      <trkpt lat="42.7968276" lon="-0.1749015">
        <ele>2289.8</ele>
      </trkpt>
      <trkpt lat="42.7966918" lon="-0.1747513">
        <ele>2293.5</ele>
      </trkpt>
      <trkpt lat="42.7966622" lon="-0.1746842">
        <ele>2293</ele>
      </trkpt>
      <trkpt lat="42.7966504" lon="-0.1746091">
        <ele>2291.2</ele>
      </trkpt>
      <trkpt lat="42.7966347" lon="-0.1743516">
        <ele>2293</ele>
      </trkpt>
      <trkpt lat="42.7964123" lon="-0.1742363">
        <ele>2296</ele>
      </trkpt>
      <trkpt lat="42.7963552" lon="-0.1741961">
        <ele>2296.8</ele>
      </trkpt>
      <trkpt lat="42.7963375" lon="-0.1741719">
        <ele>2297</ele>
      </trkpt>
      <trkpt lat="42.7963139" lon="-0.1741344">
        <ele>2297.5</ele>
      </trkpt>
      <trkpt lat="42.7961997" lon="-0.1740298">
        <ele>2299.5</ele>
      </trkpt>
      <trkpt lat="42.7961564" lon="-0.1740164">
        <ele>2300.2</ele>
      </trkpt>
      <trkpt lat="42.7961092" lon="-0.1738796">
        <ele>2303.8</ele>
      </trkpt>
      <trkpt lat="42.7960777" lon="-0.1737294">
        <ele>2308</ele>
      </trkpt>
      <trkpt lat="42.795999" lon="-0.1736677">
        <ele>2312.8</ele>
      </trkpt>
      <trkpt lat="42.795999" lon="-0.1736677">
        <ele>2312.8</ele>
      </trkpt>
      <trkpt lat="42.7959911" lon="-0.1736623">
        <ele>2313.2</ele>
      </trkpt>
      <trkpt lat="42.7959872" lon="-0.1736248">
        <ele>2313.8</ele>
      </trkpt>
      <trkpt lat="42.7958986" lon="-0.1735121">
        <ele>2318.8</ele>
      </trkpt>
      <trkpt lat="42.7958612" lon="-0.1735067">
        <ele>2321</ele>
      </trkpt>
      <trkpt lat="42.7958081" lon="-0.1734263">
        <ele>2323.5</ele>
      </trkpt>
      <trkpt lat="42.7957352" lon="-0.1733056">
        <ele>2326.5</ele>
      </trkpt>
      <trkpt lat="42.7956585" lon="-0.1732492">
        <ele>2330</ele>
      </trkpt>
      <trkpt lat="42.7955679" lon="-0.1730561">
        <ele>2331</ele>
      </trkpt>
      <trkpt lat="42.7954203" lon="-0.1729006">
        <ele>2337.5</ele>
      </trkpt>
      <trkpt lat="42.7952314" lon="-0.1728389">
        <ele>2341.5</ele>
      </trkpt>
      <trkpt lat="42.7951605" lon="-0.1727933">
        <ele>2342.5</ele>
      </trkpt>
      <trkpt lat="42.7951172" lon="-0.172745">
        <ele>2342.8</ele>
      </trkpt>
      <trkpt lat="42.7951015" lon="-0.1728684">
        <ele>2344.2</ele>
      </trkpt>
      <trkpt lat="42.7950385" lon="-0.172855">
        <ele>2345</ele>
      </trkpt>
      <trkpt lat="42.7949913" lon="-0.1728791">
        <ele>2345.8</ele>
      </trkpt>
      <trkpt lat="42.7949185" lon="-0.1729167">
        <ele>2347</ele>
      </trkpt>
      <trkpt lat="42.7948299" lon="-0.1729757">
        <ele>2349</ele>
      </trkpt>
      <trkpt lat="42.7947059" lon="-0.1729649">
        <ele>2352.8</ele>
      </trkpt>
      <trkpt lat="42.7946016" lon="-0.1729247">
        <ele>2355.5</ele>
      </trkpt>
      <trkpt lat="42.7945524" lon="-0.1728979">
        <ele>2356.2</ele>
      </trkpt>
      <trkpt lat="42.7944992" lon="-0.1728845">
        <ele>2357</ele>
      </trkpt>
      <trkpt lat="42.7944028" lon="-0.1728228">
        <ele>2356.8</ele>
      </trkpt>
      <trkpt lat="42.7943319" lon="-0.1728201">
        <ele>2357.2</ele>
      </trkpt>
      <trkpt lat="42.794265" lon="-0.1728308">
        <ele>2357</ele>
      </trkpt>
      <trkpt lat="42.7941627" lon="-0.1728603">
        <ele>2356.2</ele>
      </trkpt>
      <trkpt lat="42.7940091" lon="-0.1728335">
        <ele>2357.8</ele>
      </trkpt>
      <trkpt lat="42.7939029" lon="-0.172855">
        <ele>2364.5</ele>
      </trkpt>
      <trkpt lat="42.7938851" lon="-0.1727772">
        <ele>2365.5</ele>
      </trkpt>
      <trkpt lat="42.7938359" lon="-0.1727182">
        <ele>2368.5</ele>
      </trkpt>
      <trkpt lat="42.7937985" lon="-0.1725787">
        <ele>2369</ele>
      </trkpt>
      <trkpt lat="42.7937474" lon="-0.1724902">
        <ele>2369.8</ele>
      </trkpt>
      <trkpt lat="42.7937513" lon="-0.1723534">
        <ele>2367.5</ele>
      </trkpt>
      <trkpt lat="42.7935092" lon="-0.172289">
        <ele>2378.2</ele>
      </trkpt>
      <trkpt lat="42.7933026" lon="-0.1722917">
        <ele>2387.2</ele>
      </trkpt>
      <trkpt lat="42.7932967" lon="-0.1721978">
        <ele>2386.5</ele>
      </trkpt>
      <trkpt lat="42.7933301" lon="-0.1721549">
        <ele>2386</ele>
      </trkpt>
      <trkpt lat="42.7933577" lon="-0.1720932">
        <ele>2388.1</ele>
      </trkpt>
      <trkpt lat="42.7932061" lon="-0.1719698">
        <ele>2395.2</ele>
      </trkpt>
      <trkpt lat="42.7930585" lon="-0.1718491">
        <ele>2404.5</ele>
      </trkpt>
      <trkpt lat="42.7930349" lon="-0.1717955">
        <ele>2406</ele>
      </trkpt>
      <trkpt lat="42.7929916" lon="-0.1717982">
        <ele>2408.2</ele>
      </trkpt>
      <trkpt lat="42.7929443" lon="-0.1716936">
        <ele>2411.5</ele>
      </trkpt>
      <trkpt lat="42.79284" lon="-0.1717177">
        <ele>2417.5</ele>
      </trkpt>
      <trkpt lat="42.7926904" lon="-0.1719189">
        <ele>2427.2</ele>
      </trkpt>
      <trkpt lat="42.792657" lon="-0.1720583">
        <ele>2429.5</ele>
      </trkpt>
      <trkpt lat="42.7926589" lon="-0.1722166">
        <ele>2431.5</ele>
      </trkpt>
      <trkpt lat="42.7925684" lon="-0.1722756">
        <ele>2436</ele>
      </trkpt>
      <trkpt lat="42.7924641" lon="-0.1722488">
        <ele>2439.8</ele>
      </trkpt>
      <trkpt lat="42.7922791" lon="-0.1723132">
        <ele>2447.5</ele>
      </trkpt>
      <trkpt lat="42.7920763" lon="-0.1722971">
        <ele>2457</ele>
      </trkpt>
      <trkpt lat="42.79197" lon="-0.1723963">
        <ele>2460.2</ele>
      </trkpt>
      <trkpt lat="42.791848" lon="-0.1722246">
        <ele>2464.5</ele>
      </trkpt>
      <trkpt lat="42.791728" lon="-0.1722005">
        <ele>2470.5</ele>
      </trkpt>
      <trkpt lat="42.7917161" lon="-0.1721254">
        <ele>2473</ele>
      </trkpt>
      <trkpt lat="42.7916433" lon="-0.1721227">
        <ele>2478.2</ele>
      </trkpt>
      <trkpt lat="42.791598" lon="-0.1720557">
        <ele>2483.8</ele>
      </trkpt>
      <trkpt lat="42.791539" lon="-0.1720691">
        <ele>2487.8</ele>
      </trkpt>
      <trkpt lat="42.791474" lon="-0.1718035">
        <ele>2490.8</ele>
      </trkpt>
      <trkpt lat="42.7914189" lon="-0.1718384">
        <ele>2491.8</ele>
      </trkpt>
      <trkpt lat="42.7913756" lon="-0.1720235">
        <ele>2494.5</ele>
      </trkpt>
      <trkpt lat="42.7912792" lon="-0.1721925">
        <ele>2496.5</ele>
      </trkpt>
      <trkpt lat="42.7910666" lon="-0.1722568">
        <ele>2503.8</ele>
      </trkpt>
      <trkpt lat="42.7906887" lon="-0.1722515">
        <ele>2519</ele>
      </trkpt>
      <trkpt lat="42.7903246" lon="-0.1722702">
        <ele>2517.5</ele>
      </trkpt>
      <trkpt lat="42.7902773" lon="-0.1723453">
        <ele>2515.2</ele>
      </trkpt>
      <trkpt lat="42.7901946" lon="-0.1724258">
        <ele>2512.2</ele>
      </trkpt>
      <trkpt lat="42.7900569" lon="-0.1724741">
        <ele>2513.2</ele>
      </trkpt>
      <trkpt lat="42.7899269" lon="-0.1725036">
        <ele>2517.8</ele>
      </trkpt>
      <trkpt lat="42.7898266" lon="-0.1725814">
        <ele>2517</ele>
      </trkpt>
      <trkpt lat="42.7897301" lon="-0.1726726">
        <ele>2512.8</ele>
      </trkpt>
      <trkpt lat="42.7896671" lon="-0.1727182">
        <ele>2510.2</ele>
      </trkpt>
      <trkpt lat="42.7895431" lon="-0.1727262">
        <ele>2510</ele>
      </trkpt>
      <trkpt lat="42.7894585" lon="-0.1727423">
        <ele>2510.2</ele>
      </trkpt>
      <trkpt lat="42.7894034" lon="-0.1727799">
        <ele>2509.2</ele>
      </trkpt>
      <trkpt lat="42.7893168" lon="-0.1728657">
        <ele>2508</ele>
      </trkpt>
      <trkpt lat="42.7892321" lon="-0.1729059">
        <ele>2509.2</ele>
      </trkpt>
      <trkpt lat="42.7890254" lon="-0.1728898">
        <ele>2516.8</ele>
      </trkpt>
      <trkpt lat="42.7888818" lon="-0.1729167">
        <ele>2520.5</ele>
      </trkpt>
      <trkpt lat="42.7888699" lon="-0.172863">
        <ele>2522</ele>
      </trkpt>
      <trkpt lat="42.7888463" lon="-0.172863">
        <ele>2522.5</ele>
      </trkpt>
      <trkpt lat="42.7887991" lon="-0.1728442">
        <ele>2523.5</ele>
      </trkpt>
      <trkpt lat="42.7887676" lon="-0.172863">
        <ele>2523.8</ele>
      </trkpt>
      <trkpt lat="42.7887282" lon="-0.1728764">
        <ele>2523.6</ele>
      </trkpt>
      <trkpt lat="42.7887007" lon="-0.1727664">
        <ele>2523.2</ele>
      </trkpt>
      <trkpt lat="42.7886062" lon="-0.1727316">
        <ele>2520.8</ele>
      </trkpt>
      <trkpt lat="42.7885491" lon="-0.1727101">
        <ele>2519</ele>
      </trkpt>
      <trkpt lat="42.7885176" lon="-0.1726511">
        <ele>2517.2</ele>
      </trkpt>
      <trkpt lat="42.788557" lon="-0.1725224">
        <ele>2515.2</ele>
      </trkpt>
      <trkpt lat="42.7885648" lon="-0.1724553">
        <ele>2514</ele>
      </trkpt>
      <trkpt lat="42.7885393" lon="-0.1723963">
        <ele>2512</ele>
      </trkpt>
      <trkpt lat="42.7881475" lon="-0.1716265">
        <ele>2505</ele>
      </trkpt>
      <trkpt lat="42.7880413" lon="-0.1713744">
        <ele>2505.5</ele>
      </trkpt>
      <trkpt lat="42.7879665" lon="-0.1712885">
        <ele>2503</ele>
      </trkpt>
      <trkpt lat="42.7879074" lon="-0.1711357">
        <ele>2505.5</ele>
      </trkpt>
      <trkpt lat="42.7878267" lon="-0.1710042">
        <ele>2508</ele>
      </trkpt>
      <trkpt lat="42.7878267" lon="-0.1710069">
        <ele>2508</ele>
      </trkpt>
      <trkpt lat="42.7878267" lon="-0.1710042">
        <ele>2508</ele>
      </trkpt>
      <trkpt lat="42.7877421" lon="-0.170956">
        <ele>2506.2</ele>
      </trkpt>
      <trkpt lat="42.7877047" lon="-0.1708701">
        <ele>2506.8</ele>
      </trkpt>
      <trkpt lat="42.7877106" lon="-0.1707923">
        <ele>2507.2</ele>
      </trkpt>
      <trkpt lat="42.7877263" lon="-0.1707146">
        <ele>2507.8</ele>
      </trkpt>
      <trkpt lat="42.7877165" lon="-0.1704973">
        <ele>2500.5</ele>
      </trkpt>
      <trkpt lat="42.7878346" lon="-0.1703095">
        <ele>2504.2</ele>
      </trkpt>
      <trkpt lat="42.7878995" lon="-0.1701245">
        <ele>2505</ele>
      </trkpt>
      <trkpt lat="42.7879054" lon="-0.1698858">
        <ele>2497.8</ele>
      </trkpt>
      <trkpt lat="42.7878641" lon="-0.1698482">
        <ele>2493</ele>
      </trkpt>
      <trkpt lat="42.7877952" lon="-0.1698402">
        <ele>2487</ele>
      </trkpt>
      <trkpt lat="42.7876751" lon="-0.1697356">
        <ele>2476.2</ele>
      </trkpt>
      <trkpt lat="42.7877027" lon="-0.1695746">
        <ele>2475.8</ele>
      </trkpt>
      <trkpt lat="42.7877302" lon="-0.169521">
        <ele>2475</ele>
      </trkpt>
      <trkpt lat="42.787746" lon="-0.1694271">
        <ele>2474</ele>
      </trkpt>
      <trkpt lat="42.7877362" lon="-0.1692259">
        <ele>2466.2</ele>
      </trkpt>
      <trkpt lat="42.7877834" lon="-0.169175">
        <ele>2467.2</ele>
      </trkpt>
      <trkpt lat="42.7878267" lon="-0.169065">
        <ele>2466.5</ele>
      </trkpt>
      <trkpt lat="42.7878562" lon="-0.1688558">
        <ele>2466.2</ele>
      </trkpt>
      <trkpt lat="42.7879487" lon="-0.1686895">
        <ele>2471</ele>
      </trkpt>
      <trkpt lat="42.7879724" lon="-0.1685902">
        <ele>2469.5</ele>
      </trkpt>
      <trkpt lat="42.7880294" lon="-0.1684883">
        <ele>2468.8</ele>
      </trkpt>
      <trkpt lat="42.7880747" lon="-0.1684695">
        <ele>2470.2</ele>
      </trkpt>
      <trkpt lat="42.788118" lon="-0.1683569">
        <ele>2467.5</ele>
      </trkpt>
      <trkpt lat="42.7881771" lon="-0.1682603">
        <ele>2466.8</ele>
      </trkpt>
      <trkpt lat="42.7881535" lon="-0.1681906">
        <ele>2462.8</ele>
      </trkpt>
      <trkpt lat="42.7881594" lon="-0.1681182">
        <ele>2460.8</ele>
      </trkpt>
      <trkpt lat="42.788179" lon="-0.1680565">
        <ele>2460</ele>
      </trkpt>
      <trkpt lat="42.7882263" lon="-0.1680243">
        <ele>2462</ele>
      </trkpt>
      <trkpt lat="42.7883149" lon="-0.1678875">
        <ele>2463.8</ele>
      </trkpt>
      <trkpt lat="42.7883759" lon="-0.167807">
        <ele>2464</ele>
      </trkpt>
      <trkpt lat="42.7884802" lon="-0.1677346">
        <ele>2465.8</ele>
      </trkpt>
      <trkpt lat="42.7887026" lon="-0.1675871">
        <ele>2466.5</ele>
      </trkpt>
      <trkpt lat="42.7888306" lon="-0.1674825">
        <ele>2464.8</ele>
      </trkpt>
      <trkpt lat="42.788927" lon="-0.1673913">
        <ele>2463.2</ele>
      </trkpt>
      <trkpt lat="42.7890274" lon="-0.1672626">
        <ele>2460.8</ele>
      </trkpt>
      <trkpt lat="42.7890786" lon="-0.1671097">
        <ele>2456</ele>
      </trkpt>
      <trkpt lat="42.7891317" lon="-0.1670641">
        <ele>2456.8</ele>
      </trkpt>
      <trkpt lat="42.7892046" lon="-0.1670265">
        <ele>2459.2</ele>
      </trkpt>
      <trkpt lat="42.7892892" lon="-0.166887">
        <ele>2458</ele>
      </trkpt>
      <trkpt lat="42.7894309" lon="-0.1666188">
        <ele>2456.8</ele>
      </trkpt>
      <trkpt lat="42.7895963" lon="-0.1663586">
        <ele>2457.5</ele>
      </trkpt>
      <trkpt lat="42.7897262" lon="-0.166238">
        <ele>2460</ele>
      </trkpt>
      <trkpt lat="42.7898226" lon="-0.1661414">
        <ele>2461.2</ele>
      </trkpt>
      <trkpt lat="42.7899053" lon="-0.1660261">
        <ele>2460.2</ele>
      </trkpt>
      <trkpt lat="42.7900254" lon="-0.16579">
        <ele>2455.2</ele>
      </trkpt>
      <trkpt lat="42.7902537" lon="-0.1654655">
        <ele>2453.2</ele>
      </trkpt>
      <trkpt lat="42.7903226" lon="-0.1654199">
        <ele>2454.5</ele>
      </trkpt>
      <trkpt lat="42.7903521" lon="-0.1653609">
        <ele>2453</ele>
      </trkpt>
      <trkpt lat="42.7904072" lon="-0.165326">
        <ele>2453.8</ele>
      </trkpt>
      <trkpt lat="42.7904466" lon="-0.1651946">
        <ele>2449.5</ele>
      </trkpt>
      <trkpt lat="42.7905194" lon="-0.1650846">
        <ele>2449</ele>
      </trkpt>
      <trkpt lat="42.7906159" lon="-0.1649773">
        <ele>2450.2</ele>
      </trkpt>
      <trkpt lat="42.7906513" lon="-0.1648727">
        <ele>2448.2</ele>
      </trkpt>
      <trkpt lat="42.7906434" lon="-0.1648164">
        <ele>2445.8</ele>
      </trkpt>
      <trkpt lat="42.7907222" lon="-0.1645428">
        <ele>2443.2</ele>
      </trkpt>
      <trkpt lat="42.7908363" lon="-0.1643738">
        <ele>2445.8</ele>
      </trkpt>
      <trkpt lat="42.7909898" lon="-0.1642129">
        <ele>2447</ele>
      </trkpt>
      <trkpt lat="42.7911808" lon="-0.1640037">
        <ele>2444.5</ele>
      </trkpt>
      <trkpt lat="42.7913422" lon="-0.1637864">
        <ele>2444.2</ele>
      </trkpt>
      <trkpt lat="42.7915154" lon="-0.1636389">
        <ele>2449</ele>
      </trkpt>
      <trkpt lat="42.791663" lon="-0.1633894">
        <ele>2449.5</ele>
      </trkpt>
      <trkpt lat="42.7917339" lon="-0.1632258">
        <ele>2450</ele>
      </trkpt>
      <trkpt lat="42.7917949" lon="-0.1631346">
        <ele>2451.5</ele>
      </trkpt>
      <trkpt lat="42.7918244" lon="-0.1629281">
        <ele>2448.8</ele>
      </trkpt>
      <trkpt lat="42.7918027" lon="-0.1627269">
        <ele>2447.2</ele>
      </trkpt>
      <trkpt lat="42.7918382" lon="-0.1625982">
        <ele>2448.5</ele>
      </trkpt>
      <trkpt lat="42.7918972" lon="-0.1624775">
        <ele>2449.8</ele>
      </trkpt>
      <trkpt lat="42.7918677" lon="-0.1622093">
        <ele>2446.5</ele>
      </trkpt>
      <trkpt lat="42.7918894" lon="-0.1621127">
        <ele>2448</ele>
      </trkpt>
      <trkpt lat="42.7919327" lon="-0.1620242">
        <ele>2450.8</ele>
      </trkpt>
      <trkpt lat="42.7919819" lon="-0.1616889">
        <ele>2452.5</ele>
      </trkpt>
      <trkpt lat="42.7920527" lon="-0.1613215">
        <ele>2457.2</ele>
      </trkpt>
      <trkpt lat="42.7920311" lon="-0.1611552">
        <ele>2456</ele>
      </trkpt>
      <trkpt lat="42.7920645" lon="-0.1609996">
        <ele>2458</ele>
      </trkpt>
      <trkpt lat="42.7919858" lon="-0.1608333">
        <ele>2456.2</ele>
      </trkpt>
      <trkpt lat="42.7918953" lon="-0.1605195">
        <ele>2456.5</ele>
      </trkpt>
      <trkpt lat="42.7917693" lon="-0.1600045">
        <ele>2457.2</ele>
      </trkpt>
      <trkpt lat="42.7915705" lon="-0.1589343">
        <ele>2464.5</ele>
      </trkpt>
      <trkpt lat="42.7911434" lon="-0.1581216">
        <ele>2477.2</ele>
      </trkpt>
      <trkpt lat="42.7910233" lon="-0.1579285">
        <ele>2482.5</ele>
      </trkpt>
      <trkpt lat="42.7909426" lon="-0.1577461">
        <ele>2488</ele>
      </trkpt>
      <trkpt lat="42.790858" lon="-0.1575744">
        <ele>2492.2</ele>
      </trkpt>
      <trkpt lat="42.7907871" lon="-0.1575074">
        <ele>2493.5</ele>
      </trkpt>
      <trkpt lat="42.7907399" lon="-0.1574376">
        <ele>2496</ele>
      </trkpt>
      <trkpt lat="42.7906296" lon="-0.1572847">
        <ele>2501.8</ele>
      </trkpt>
      <trkpt lat="42.7903993" lon="-0.1570755">
        <ele>2509.8</ele>
      </trkpt>
      <trkpt lat="42.7904171" lon="-0.156987">
        <ele>2513.5</ele>
      </trkpt>
      <trkpt lat="42.7903856" lon="-0.156987">
        <ele>2514.5</ele>
      </trkpt>
      <trkpt lat="42.7903777" lon="-0.1569602">
        <ele>2516</ele>
      </trkpt>
      <trkpt lat="42.7903482" lon="-0.1569736">
        <ele>2516.2</ele>
      </trkpt>
      <trkpt lat="42.7903482" lon="-0.1569307">
        <ele>2518.5</ele>
      </trkpt>
      <trkpt lat="42.790236" lon="-0.1569656">
        <ele>2520.8</ele>
      </trkpt>
      <trkpt lat="42.7902261" lon="-0.1569924">
        <ele>2519.5</ele>
      </trkpt>
      <trkpt lat="42.7901848" lon="-0.156979">
        <ele>2522</ele>
      </trkpt>
      <trkpt lat="42.7901494" lon="-0.1569682">
        <ele>2524</ele>
      </trkpt>
      <trkpt lat="42.790112" lon="-0.1569816">
        <ele>2524.5</ele>
      </trkpt>
      <trkpt lat="42.7901002" lon="-0.1569629">
        <ele>2526.2</ele>
      </trkpt>
      <trkpt lat="42.7901041" lon="-0.156928">
        <ele>2528.5</ele>
      </trkpt>
      <trkpt lat="42.7900706" lon="-0.1569307">
        <ele>2530</ele>
      </trkpt>
      <trkpt lat="42.7900136" lon="-0.1569575">
        <ele>2530.2</ele>
      </trkpt>
      <trkpt lat="42.7899643" lon="-0.1569119">
        <ele>2536</ele>
      </trkpt>
      <trkpt lat="42.7899388" lon="-0.1568475">
        <ele>2544</ele>
      </trkpt>
      <trkpt lat="42.7899643" lon="-0.1568046">
        <ele>2544.8</ele>
      </trkpt>
      <trkpt lat="42.7899821" lon="-0.1567724">
        <ele>2545</ele>
      </trkpt>
      <trkpt lat="42.789988" lon="-0.1567429">
        <ele>2545.5</ele>
      </trkpt>
      <trkpt lat="42.7899663" lon="-0.1567134">
        <ele>2547</ele>
      </trkpt>
      <trkpt lat="42.7899584" lon="-0.1566839">
        <ele>2547.8</ele>
      </trkpt>
      <trkpt lat="42.7899584" lon="-0.1566356">
        <ele>2548.2</ele>
      </trkpt>
      <trkpt lat="42.7899269" lon="-0.1566249">
        <ele>2549.8</ele>
      </trkpt>
      <trkpt lat="42.7899427" lon="-0.15659">
        <ele>2549.5</ele>
      </trkpt>
      <trkpt lat="42.7899269" lon="-0.1565525">
        <ele>2550.5</ele>
      </trkpt>
      <trkpt lat="42.7898856" lon="-0.1565552">
        <ele>2552</ele>
      </trkpt>
      <trkpt lat="42.7898541" lon="-0.1564962">
        <ele>2554</ele>
      </trkpt>
      <trkpt lat="42.7898148" lon="-0.156405">
        <ele>2558</ele>
      </trkpt>
      <trkpt lat="42.7897774" lon="-0.1563647">
        <ele>2560.2</ele>
      </trkpt>
      <trkpt lat="42.7897183" lon="-0.1563326">
        <ele>2562.5</ele>
      </trkpt>
      <trkpt lat="42.7896356" lon="-0.1563111">
        <ele>2564.5</ele>
      </trkpt>
      <trkpt lat="42.789549" lon="-0.1562548">
        <ele>2565.8</ele>
      </trkpt>
      <trkpt lat="42.7895274" lon="-0.1562467">
        <ele>2566</ele>
      </trkpt>
      <trkpt lat="42.7895333" lon="-0.1562092">
        <ele>2567.8</ele>
      </trkpt>
      <trkpt lat="42.7894979" lon="-0.156185">
        <ele>2568.5</ele>
      </trkpt>
      <trkpt lat="42.7895057" lon="-0.1561528">
        <ele>2570</ele>
      </trkpt>
      <trkpt lat="42.7894585" lon="-0.156126">
        <ele>2570.8</ele>
      </trkpt>
      <trkpt lat="42.789364" lon="-0.1559839">
        <ele>2575.8</ele>
      </trkpt>
      <trkpt lat="42.7892124" lon="-0.1558846">
        <ele>2581.8</ele>
      </trkpt>
      <trkpt lat="42.7891081" lon="-0.1557398">
        <ele>2589.8</ele>
      </trkpt>
      <trkpt lat="42.7891042" lon="-0.1556593">
        <ele>2591.8</ele>
      </trkpt>
      <trkpt lat="42.7891121" lon="-0.1555869">
        <ele>2592.5</ele>
      </trkpt>
      <trkpt lat="42.7891022" lon="-0.1554608">
        <ele>2593.5</ele>
      </trkpt>
      <trkpt lat="42.7891278" lon="-0.1553831">
        <ele>2592</ele>
      </trkpt>
      <trkpt lat="42.7891337" lon="-0.1553214">
        <ele>2590.7</ele>
      </trkpt>
      <trkpt lat="42.7891337" lon="-0.1553214">
        <ele>2590.7</ele>
      </trkpt>
      <trkpt lat="42.7891455" lon="-0.1552811">
        <ele>2589.8</ele>
      </trkpt>
      <trkpt lat="42.7892085" lon="-0.1551846">
        <ele>2585.8</ele>
      </trkpt>
      <trkpt lat="42.7892459" lon="-0.1551524">
        <ele>2584</ele>
      </trkpt>
      <trkpt lat="42.7892459" lon="-0.1551363">
        <ele>2583.5</ele>
      </trkpt>
      <trkpt lat="42.7892006" lon="-0.1550853">
        <ele>2583.8</ele>
      </trkpt>
      <trkpt lat="42.7891869" lon="-0.1550692">
        <ele>2584</ele>
      </trkpt>
      <trkpt lat="42.7891908" lon="-0.1550451">
        <ele>2585</ele>
      </trkpt>
      <trkpt lat="42.7892242" lon="-0.1550397">
        <ele>2583.5</ele>
      </trkpt>
      <trkpt lat="42.7892144" lon="-0.1549834">
        <ele>2582.8</ele>
      </trkpt>
      <trkpt lat="42.7892341" lon="-0.1548707">
        <ele>2579.5</ele>
      </trkpt>
      <trkpt lat="42.7893128" lon="-0.1548976">
        <ele>2576.5</ele>
      </trkpt>
      <trkpt lat="42.7893424" lon="-0.1548976">
        <ele>2575.5</ele>
      </trkpt>
      <trkpt lat="42.789364" lon="-0.1548868">
        <ele>2574.5</ele>
      </trkpt>
      <trkpt lat="42.7893601" lon="-0.1548547">
        <ele>2573.2</ele>
      </trkpt>
      <trkpt lat="42.7893797" lon="-0.1548547">
        <ele>2572.5</ele>
      </trkpt>
      <trkpt lat="42.7893876" lon="-0.1548412">
        <ele>2571.8</ele>
      </trkpt>
      <trkpt lat="42.7893778" lon="-0.1548091">
        <ele>2571</ele>
      </trkpt>
      <trkpt lat="42.7893955" lon="-0.1547849">
        <ele>2569.5</ele>
      </trkpt>
      <trkpt lat="42.7893955" lon="-0.1546857">
        <ele>2566.8</ele>
      </trkpt>
      <trkpt lat="42.7894053" lon="-0.1546615">
        <ele>2565.5</ele>
      </trkpt>
      <trkpt lat="42.7894486" lon="-0.1546428">
        <ele>2562.8</ele>
      </trkpt>
      <trkpt lat="42.7894467" lon="-0.1545998">
        <ele>2561.8</ele>
      </trkpt>
      <trkpt lat="42.7894801" lon="-0.1545784">
        <ele>2559.2</ele>
      </trkpt>
      <trkpt lat="42.7894841" lon="-0.1544899">
        <ele>2557</ele>
      </trkpt>
      <trkpt lat="42.7894585" lon="-0.1542941">
        <ele>2555</ele>
      </trkpt>
      <trkpt lat="42.7896061" lon="-0.1536047">
        <ele>2533.8</ele>
      </trkpt>
      <trkpt lat="42.7897793" lon="-0.1533017">
        <ele>2519.8</ele>
      </trkpt>
      <trkpt lat="42.7898167" lon="-0.1532239">
        <ele>2517.2</ele>
      </trkpt>
      <trkpt lat="42.7898069" lon="-0.1530361">
        <ele>2514.8</ele>
      </trkpt>
      <trkpt lat="42.7899092" lon="-0.1527867">
        <ele>2507</ele>
      </trkpt>
      <trkpt lat="42.7900411" lon="-0.1525506">
        <ele>2496.2</ele>
      </trkpt>
      <trkpt lat="42.7901002" lon="-0.1524273">
        <ele>2491.5</ele>
      </trkpt>
      <trkpt lat="42.7901966" lon="-0.1523039">
        <ele>2486.2</ele>
      </trkpt>
      <trkpt lat="42.7901946" lon="-0.1518747">
        <ele>2477</ele>
      </trkpt>
      <trkpt lat="42.790295" lon="-0.1516682">
        <ele>2469</ele>
      </trkpt>
      <trkpt lat="42.7904387" lon="-0.1515555">
        <ele>2460</ele>
      </trkpt>
      <trkpt lat="42.7904466" lon="-0.1514268">
        <ele>2460</ele>
      </trkpt>
      <trkpt lat="42.7904702" lon="-0.1512793">
        <ele>2459.5</ele>
      </trkpt>
      <trkpt lat="42.7905135" lon="-0.1512283">
        <ele>2457.2</ele>
      </trkpt>
      <trkpt lat="42.79048" lon="-0.1511183">
        <ele>2457</ele>
      </trkpt>
      <trkpt lat="42.7906808" lon="-0.1509494">
        <ele>2441.2</ele>
      </trkpt>
      <trkpt lat="42.7907379" lon="-0.1508099">
        <ele>2435</ele>
      </trkpt>
      <trkpt lat="42.7907517" lon="-0.1506945">
        <ele>2430.2</ele>
      </trkpt>
      <trkpt lat="42.7905667" lon="-0.1507241">
        <ele>2433</ele>
      </trkpt>
      <trkpt lat="42.79073" lon="-0.1498684">
        <ele>2396.8</ele>
      </trkpt>
      <trkpt lat="42.7907576" lon="-0.1493803">
        <ele>2381.8</ele>
      </trkpt>
      <trkpt lat="42.790484" lon="-0.1495975">
        <ele>2374.5</ele>
      </trkpt>
      <trkpt lat="42.7901317" lon="-0.1495197">
        <ele>2367.5</ele>
      </trkpt>
      <trkpt lat="42.7899919" lon="-0.1493347">
        <ele>2353.8</ele>
      </trkpt>
      <trkpt lat="42.7899033" lon="-0.1493293">
        <ele>2353.2</ele>
      </trkpt>
      <trkpt lat="42.7898266" lon="-0.149045">
        <ele>2342</ele>
      </trkpt>
      <trkpt lat="42.7896888" lon="-0.1488036">
        <ele>2338</ele>
      </trkpt>
      <trkpt lat="42.7895589" lon="-0.1487714">
        <ele>2339.8</ele>
      </trkpt>
      <trkpt lat="42.7894605" lon="-0.1484603">
        <ele>2338.8</ele>
      </trkpt>
      <trkpt lat="42.7894486" lon="-0.148015">
        <ele>2333.8</ele>
      </trkpt>
      <trkpt lat="42.7895569" lon="-0.1479694">
        <ele>2329.5</ele>
      </trkpt>
      <trkpt lat="42.7895431" lon="-0.1479158">
        <ele>2328.2</ele>
      </trkpt>
      <trkpt lat="42.7894191" lon="-0.1477978">
        <ele>2323.5</ele>
      </trkpt>
      <trkpt lat="42.7893699" lon="-0.1478246">
        <ele>2325.2</ele>
      </trkpt>
      <trkpt lat="42.7892833" lon="-0.1476261">
        <ele>2314</ele>
      </trkpt>
      <trkpt lat="42.7891691" lon="-0.1475403">
        <ele>2313.5</ele>
      </trkpt>
      <trkpt lat="42.7892085" lon="-0.147433">
        <ele>2306.5</ele>
      </trkpt>
      <trkpt lat="42.7888719" lon="-0.1469529">
        <ele>2290.8</ele>
      </trkpt>
      <trkpt lat="42.788929" lon="-0.1468402">
        <ele>2285</ele>
      </trkpt>
      <trkpt lat="42.7892065" lon="-0.1468268">
        <ele>2278</ele>
      </trkpt>
      <trkpt lat="42.7893817" lon="-0.1468992">
        <ele>2276.5</ele>
      </trkpt>
      <trkpt lat="42.7895608" lon="-0.1467893">
        <ele>2265.8</ele>
      </trkpt>
      <trkpt lat="42.7895923" lon="-0.1467302">
        <ele>2261.8</ele>
      </trkpt>
      <trkpt lat="42.7895097" lon="-0.146623">
        <ele>2259.2</ele>
      </trkpt>
      <trkpt lat="42.7897104" lon="-0.1465023">
        <ele>2247.5</ele>
      </trkpt>
      <trkpt lat="42.7894821" lon="-0.1460972">
        <ele>2237.2</ele>
      </trkpt>
      <trkpt lat="42.7895392" lon="-0.1460329">
        <ele>2231.8</ele>
      </trkpt>
      <trkpt lat="42.789488" lon="-0.1459819">
        <ele>2233</ele>
      </trkpt>
      <trkpt lat="42.7895628" lon="-0.1457727">
        <ele>2220</ele>
      </trkpt>
      <trkpt lat="42.7897675" lon="-0.1456815">
        <ele>2213.8</ele>
      </trkpt>
      <trkpt lat="42.7897498" lon="-0.1454991">
        <ele>2208</ele>
      </trkpt>
      <trkpt lat="42.7898088" lon="-0.1453784">
        <ele>2205.8</ele>
      </trkpt>
      <trkpt lat="42.7901671" lon="-0.1451612">
        <ele>2198.2</ele>
      </trkpt>
      <trkpt lat="42.790236" lon="-0.1450351">
        <ele>2193.8</ele>
      </trkpt>
      <trkpt lat="42.790232" lon="-0.1447132">
        <ele>2183.5</ele>
      </trkpt>
      <trkpt lat="42.7901336" lon="-0.144453">
        <ele>2170.8</ele>
      </trkpt>
      <trkpt lat="42.7904033" lon="-0.1437718">
        <ele>2153.5</ele>
      </trkpt>
      <trkpt lat="42.7912615" lon="-0.143584">
        <ele>2147.8</ele>
      </trkpt>
      <trkpt lat="42.7914327" lon="-0.1434982">
        <ele>2147.2</ele>
      </trkpt>
    </trkseg>
  </trk>
</gpx>